sra,srx,patient,sample_name,biosample,status
SRR7873106,SRR7873106,1,FMT.0034B..pool591,SAMN10086018,Dieseased
SRR7872958,SRR7872958,1,FMT.0034D..pool680.fmt,SAMN10086020,Dieseased
SRR5979717,SRR5979717,3,FMT.0122D,SAMN07562096,Dieseased
SRR5979716,SRR5979716,3,FMT.0122E,SAMN07562097,Dieseased
SRR5979585,SRR5979585,3,FMT.0122F,SAMN07562098,Dieseased
SRR7873369,SRR7873369,6,957C..pool470,SAMN10085857,Dieseased
SRR9260703,SRR9260703,11,FMT.0023D,SAMN12007807,Healthy
SRR5977987,SRR5977987,15,FMT.0066V,SAMN07560741,Healthy
SRR7873105,SRX4711898,1,FMT.0034C..pool591,SAMN10086019,Dieseased
SRR7872959,SRX4712044,1,FMT.0034E..pool581.FMT,SAMN10086021,Dieseased
SRR7872956,SRX4712047,1,FMT.0034F..pool591,SAMN10086022,Dieseased
SRR9268925,SRX6039401,2,FMT.0193A,SAMN12019653,Dieseased
SRR9269020,SRX6039306,2,FMT.0193B,SAMN12019686,Dieseased
SRR9270682,SRX6041005,2,FMT.0193C,SAMN12020135,Dieseased
SRR9270646,SRX6041041,2,FMT.0193D,SAMN12020136,Dieseased
SRR10381556,SRX7082444,2,FMT.0193E,SAMN12020137,Dieseased
SRR9270645,SRX6041042,2,FMT.0193F,SAMN12020138,Dieseased
SRR5979718,SRX3135789,3,FMT.0122C,SAMN07562095,Dieseased
SRR5979681,SRX3135826,3,FMT.0122G,SAMN07562099,Dieseased
SRR9270029,SRX6040306,3,FMT.0122I,SAMN12019391,Dieseased
SRR7870676,SRX4709556,4,1015A..pool483,SAMN10082079,Dieseased
SRR10381509,SRX7082300,4,1015D,SAMN13174029,Dieseased
SRR9271161,SRX6041484,5,1606E,SAMN12021069,Dieseased
SRR9271160,SRX6041485,5,1606F,SAMN12021070,Dieseased
SRR9271159,SRX6041486,5,1606G,SAMN12021071,Dieseased
SRR10381493,SRX7082316,5,1606H,SAMN13174037,Dieseased
SRR10381492,SRX7082317,5,1606I,SAMN13174038,Dieseased
SRR7873368,SRX4712136,6,957B..pool470,SAMN10085856,Dieseased
SRR7872531,SRX4711193,7,779A..pool415,SAMN10084704,Dieseased
SRR7872530,SRX4711194,7,779B..pool415,SAMN10084705,Dieseased
SRR7872535,SRX4711189,7,779C..pool415,SAMN10084706,Dieseased
SRR7872534,SRX4711190,7,779D..pool415,SAMN10084707,Dieseased
SRR7872385,SRX4711339,7,779E..pool415,SAMN10084708,Dieseased
SRR9268400,SRX6038559,8,1186A,SAMN12018900,Dieseased
SRR9268403,SRX6038556,8,1186B,SAMN12018901,Dieseased
SRR9268397,SRX6038562,8,1186E,SAMN12018904,Dieseased
SRR10381633,SRX7082367,8,1186F,SAMN12018905,Dieseased
SRR9268396,SRX6038563,8,1186G,SAMN12018906,Dieseased
SRR9268240,SRX6038719,8,1186H,SAMN12018907,Dieseased
SRR9268241,SRX6038718,8,1186I,SAMN12018908,Dieseased
SRR9268242,SRX6038717,8,1186J,SAMN12018909,Dieseased
SRR9268243,SRX6038716,8,1186K,SAMN12018910,Dieseased
SRR10381508,SRX7082301,8,1186M,SAMN13174032,Dieseased
SRR10381497,SRX7082312,8,1186N,SAMN13174033,Dieseased
SRR10381496,SRX7082313,8,1186P,SAMN13174034,Dieseased
SRR10381495,SRX7082314,8,1186R,SAMN13174035,Dieseased
SRR10381494,SRX7082315,8,1186T,SAMN13174036,Dieseased
SRR9269148,SRX6039178,9,FMT.0175B,SAMN12019567,Healthy
SRR9269147,SRX6039179,9,FMT.0175C,SAMN12019568,Healthy
SRR9269139,SRX6039187,9,FMT.0175D,SAMN12019569,Healthy
SRR9269138,SRX6039188,9,FMT.0175E,SAMN12019570,Healthy
SRR9269114,SRX6039212,9,FMT.0175F,SAMN12019571,Healthy
SRR9269117,SRX6039209,9,FMT.0175J,SAMN12019574,Healthy
SRR10381500,SRX7082309,9,FMT.0175L,SAMN13174049,Healthy
SRR10381499,SRX7082310,9,FMT.0175M,SAMN13174050,Healthy
SRR10381498,SRX7082311,9,FMT.0175N,SAMN13174051,Healthy
SRR9269485,SRX6039625,10,FMT.0136B,SAMN12018649,Healthy
SRR9269484,SRX6039626,10,FMT.0136C,SAMN12018650,Healthy
SRR9269491,SRX6039619,10,FMT.0136D,SAMN12018651,Healthy
SRR9269489,SRX6039621,10,FMT.0136F,SAMN12018653,Healthy
SRR10381505,SRX7082304,10,FMT.0136G,SAMN13174044,Healthy
SRR10381504,SRX7082305,10,FMT.0136I,SAMN13174045,Healthy
SRR10381503,SRX7082306,10,FMT.0136N,SAMN13174046,Healthy
SRR10381502,SRX7082307,10,FMT.0136O,SAMN13174047,Healthy
SRR10381501,SRX7082308,10,FMT.0136P,SAMN13174048,Healthy
SRR9260877,SRX6031123,11,1083A,SAMN12007783,Healthy
SRR9260876,SRX6031124,11,1083B,SAMN12007784,Healthy
SRR9260695,SRX6031305,11,FMT.0023B,SAMN12007805,Healthy
SRR9260694,SRX6031306,11,FMT.0023C,SAMN12007806,Healthy
SRR9260676,SRX6031324,11,FMT.0023E,SAMN12007809,Healthy
SRR9260677,SRX6031323,11,FMT.0023F,SAMN12007810,Healthy
SRR9260679,SRX6031321,11,FMT.0023H,SAMN12007812,Healthy
SRR9260680,SRX6031320,11,FMT.0023I,SAMN12007813,Healthy
SRR10381491,SRX7082318,11,FMT.0023K,SAMN13174039,Healthy
SRR10381578,SRX7082422,12,FMT.0124B,SAMN12020322,Healthy
SRR9270722,SRX6040965,12,FMT.0124G,SAMN12020327,Healthy
SRR9270724,SRX6040963,12,FMT.0124I,SAMN12020329,Healthy
SRR10381506,SRX7082303,12,FMT.0124K,SAMN13174043,Healthy
SRR9269018,SRX6039308,13,FMT.0191B,SAMN12019684,Healthy
SRR7869305,SRX4708248,13,191F..pool542,SAMN10082933,Healthy
SRR7873301,SRX4712203,14,FMT.0009A..pool594,SAMN10085940,Healthy
SRR7873298,SRX4712206,14,FMT.0009F..pool549,SAMN10085945,Healthy
SRR7873304,SRX4712200,14,FMT.0009K..pool549,SAMN10085949,Healthy
SRR7873180,SRX4711823,14,FMT.0009N..pool549,SAMN10085951,Healthy
SRR9269739,SRX6039923,15,FMT.0066D,SAMN12019209,Healthy
SRR9269749,SRX6039913,15,FMT.0066E,SAMN12019210,Healthy
SRR9269748,SRX6039914,15,FMT.0066F,SAMN12019211,Healthy
SRR9269744,SRX6039918,15,FMT.0066J,SAMN12019215,Healthy
SRR9269747,SRX6039915,15,FMT.0066K,SAMN12019216,Healthy
SRR9269746,SRX6039916,15,FMT.0066L,SAMN12019217,Healthy
SRR9269754,SRX6039908,15,FMT.0066M,SAMN12019218,Healthy
SRR9269753,SRX6039909,15,FMT.0066N,SAMN12019219,Healthy
SRR9269821,SRX6039841,15,FMT.0066O,SAMN12019220,Healthy
SRR9269822,SRX6039840,15,FMT.0066P,SAMN12019221,Healthy
SRR9269823,SRX6039839,15,FMT.0066Q,SAMN12019222,Healthy
SRR9269824,SRX6039838,15,FMT.0066R,SAMN12019223,Healthy
SRR9269825,SRX6039837,15,FMT.0066S,SAMN12019224,Healthy
SRR9269826,SRX6039836,15,FMT.0066T,SAMN12019225,Healthy
SRR9269827,SRX6039835,15,FMT.0066U,SAMN12019226,Healthy
SRR10381490,SRX7082319,15,FMT.0066W,SAMN13174040,Healthy
SRR10381507,SRX7082302,15,FMT.0066X,SAMN13174041,Healthy
