[
    {
        "Id": "sha256:b7d44c2529a60dbed56c35bb54b83474c78821b0d1cc87a570215122e49b7b4e",
        "RepoTags": [
            "sbi-registry.hki-jena.de/seelbind/powercalc_candidemia:latest"
        ],
        "RepoDigests": [],
        "Parent": "",
        "Comment": "buildkit.dockerfile.v0",
        "Created": "2021-03-05T17:25:35.520935425+01:00",
        "Container": "",
        "ContainerConfig": {
            "Hostname": "",
            "Domainname": "",
            "User": "",
            "AttachStdin": false,
            "AttachStdout": false,
            "AttachStderr": false,
            "Tty": false,
            "OpenStdin": false,
            "StdinOnce": false,
            "Env": null,
            "Cmd": null,
            "Image": "",
            "Volumes": null,
            "WorkingDir": "",
            "Entrypoint": null,
            "OnBuild": null,
            "Labels": null
        },
        "DockerVersion": "",
        "Author": "",
        "Config": {
            "Hostname": "",
            "Domainname": "",
            "User": "",
            "AttachStdin": false,
            "AttachStdout": false,
            "AttachStderr": false,
            "ExposedPorts": {
                "8787/tcp": {}
            },
            "Tty": false,
            "OpenStdin": false,
            "StdinOnce": false,
            "Env": [
                "PATH=/usr/local/texlive/bin/x86_64-linux:/usr/lib/rstudio-server/bin:/usr/local/sbin:/usr/local/bin:/usr/sbin:/usr/bin:/sbin:/bin",
                "R_VERSION=4.0.3",
                "TERM=xterm",
                "LC_ALL=en_US.UTF-8",
                "LANG=en_US.UTF-8",
                "R_HOME=/usr/local/lib/R",
                "CRAN=https://packagemanager.rstudio.com/cran/__linux__/focal/2021-02-17",
                "TZ=Europe/Berlin",
                "S6_VERSION=v2.1.0.2",
                "RSTUDIO_VERSION=latest",
                "CTAN_REPO=http://mirror.ctan.org/systems/texlive/tlnet",
                "DEBIAN_FRONTEND=noninteractive"
            ],
            "Cmd": [
                "/bin/bash",
                "-c",
                "make analyse"
            ],
            "ArgsEscaped": true,
            "Image": "",
            "Volumes": null,
            "WorkingDir": "/analysis",
            "Entrypoint": null,
            "OnBuild": null,
            "Labels": {
                "maintainer": "Carl Boettiger <cboettig@ropensci.org>",
                "org.label-schema.license": "GPL-2.0",
                "org.label-schema.vcs-url": "https://github.com/rocker-org/rocker-versioned",
                "org.label-schema.vendor": "Rocker Project"
            },
            "Shell": [
                "/bin/bash",
                "-c"
            ]
        },
        "Architecture": "amd64",
        "Os": "linux",
        "Size": 4372206213,
        "VirtualSize": 4372206213,
        "GraphDriver": {
            "Data": null,
            "Name": "btrfs"
        },
        "RootFS": {
            "Type": "layers",
            "Layers": [
                "sha256:e1c75a5e0bfa094c407e411eb6cc8a159ee8b060cbd0398f1693978b4af9af10",
                "sha256:9e97312b63ff63ad98bb1f3f688fdff0721ce5111e7475b02ab652f10a4ff97d",
                "sha256:ec1817c93e7c08d27bfee063f0f1349185a558b87b2d806768af0a8fbbf5bc11",
                "sha256:05f3b67ed530c5b55f6140dfcdfb9746cdae7b76600de13275197d009086bb3d",
                "sha256:0f40328ba2ca953f316b1b4a9adfa7bf3af4ed002763dd59df2edd986327d912",
                "sha256:e9c7558686c1cd413b40e34b4e5b810fb850a526671c2e46b19a8de1b1c25a06",
                "sha256:69ddad44852a5746f697cd6817612382f731c2e1662d08fc19800bdf816fec58",
                "sha256:794f2e568bb629d0781ec2a19db623651d323b67db6bce180d61bb714e3ea38a",
                "sha256:e4600e768d286e32d3f682878a09d47e7dea6c9b5705b437e8d4a645aee677f5",
                "sha256:e478befd349e3c0cc6cc77daa9d935d2912b7d62b7046fe2036278d811bf1f6a",
                "sha256:b128bb3741fd36dcd2f7181770aeccb88263f9ff04d0e705cda47b39efb8a58c",
                "sha256:0bb50a7b4b75d93db0ce4af485a527a4088ae3f19481e459102d7b36df55e008",
                "sha256:ed7ad02798e0372bec7f76c050428c9171dd8430185a3f9fb20a56b2a44e2055",
                "sha256:85598b972cf576a3080596fe6332d07dcd4d25937ae9036c73fd6c43cc3409c7",
                "sha256:8db7f6f59311ccb2a1d60f04e8f1e5ea1b6c8c67d8b85549b3d8924fb2681b13",
                "sha256:565b0702f7822498816ecf371d1c984c32c882b1ce705977a55bca5cb705e17c",
                "sha256:48e4073f97679638d86543d51d3dff6c8467e12e4a7c2e93b7773f26729f48d4"
            ]
        },
        "Metadata": {
            "LastTagTime": "2021-03-05T17:25:38.760446767+01:00"
        }
    }
]
