dist_method	binary	state	target_sd	number_otu	target_mean	rare_depth
bray	FALSE	Dieseased	0.246	10	0.775	3.7e-4
bray	FALSE	Healthy	0.207	7	0.549	9e-4
jaccard	FALSE	Dieseased	0.213	9.2	0.845	3.7e-4
jaccard	FALSE	Healthy	0.19	6.2	0.684	9e-4
